([('nix64',
   '/home/hp/django_projects/flaskapp/.pyupdater/work/nix64/nix64',
   'EXECUTABLE'),
  ('libexpat.so.1', '/lib/x86_64-linux-gnu/libexpat.so.1', 'BINARY'),
  ('libz.so.1', '/lib/x86_64-linux-gnu/libz.so.1', 'BINARY'),
  ('mmap',
   '/home/hp/django_projects/pd/lib/python3.5/lib-dynload/mmap.cpython-35m-x86_64-linux-gnu.so',
   'EXTENSION'),
  ('_multiprocessing',
   '/home/hp/django_projects/pd/lib/python3.5/lib-dynload/_multiprocessing.cpython-35m-x86_64-linux-gnu.so',
   'EXTENSION'),
  ('resource',
   '/home/hp/django_projects/pd/lib/python3.5/lib-dynload/resource.cpython-35m-x86_64-linux-gnu.so',
   'EXTENSION'),
  ('_ssl',
   '/home/hp/django_projects/pd/lib/python3.5/lib-dynload/_ssl.cpython-35m-x86_64-linux-gnu.so',
   'EXTENSION'),
  ('_opcode',
   '/home/hp/django_projects/pd/lib/python3.5/lib-dynload/_opcode.cpython-35m-x86_64-linux-gnu.so',
   'EXTENSION'),
  ('readline',
   '/home/hp/django_projects/pd/lib/python3.5/lib-dynload/readline.cpython-35m-x86_64-linux-gnu.so',
   'EXTENSION'),
  ('_ctypes',
   '/home/hp/django_projects/pd/lib/python3.5/lib-dynload/_ctypes.cpython-35m-x86_64-linux-gnu.so',
   'EXTENSION'),
  ('termios',
   '/home/hp/django_projects/pd/lib/python3.5/lib-dynload/termios.cpython-35m-x86_64-linux-gnu.so',
   'EXTENSION'),
  ('_hashlib',
   '/home/hp/django_projects/pd/lib/python3.5/lib-dynload/_hashlib.cpython-35m-x86_64-linux-gnu.so',
   'EXTENSION'),
  ('_lzma',
   '/home/hp/django_projects/pd/lib/python3.5/lib-dynload/_lzma.cpython-35m-x86_64-linux-gnu.so',
   'EXTENSION'),
  ('_codecs_tw',
   '/home/hp/django_projects/pd/lib/python3.5/lib-dynload/_codecs_tw.cpython-35m-x86_64-linux-gnu.so',
   'EXTENSION'),
  ('_codecs_cn',
   '/home/hp/django_projects/pd/lib/python3.5/lib-dynload/_codecs_cn.cpython-35m-x86_64-linux-gnu.so',
   'EXTENSION'),
  ('_codecs_kr',
   '/home/hp/django_projects/pd/lib/python3.5/lib-dynload/_codecs_kr.cpython-35m-x86_64-linux-gnu.so',
   'EXTENSION'),
  ('_codecs_hk',
   '/home/hp/django_projects/pd/lib/python3.5/lib-dynload/_codecs_hk.cpython-35m-x86_64-linux-gnu.so',
   'EXTENSION'),
  ('_bz2',
   '/home/hp/django_projects/pd/lib/python3.5/lib-dynload/_bz2.cpython-35m-x86_64-linux-gnu.so',
   'EXTENSION'),
  ('_codecs_iso2022',
   '/home/hp/django_projects/pd/lib/python3.5/lib-dynload/_codecs_iso2022.cpython-35m-x86_64-linux-gnu.so',
   'EXTENSION'),
  ('_codecs_jp',
   '/home/hp/django_projects/pd/lib/python3.5/lib-dynload/_codecs_jp.cpython-35m-x86_64-linux-gnu.so',
   'EXTENSION'),
  ('_multibytecodec',
   '/home/hp/django_projects/pd/lib/python3.5/lib-dynload/_multibytecodec.cpython-35m-x86_64-linux-gnu.so',
   'EXTENSION'),
  ('_json',
   '/home/hp/django_projects/pd/lib/python3.5/lib-dynload/_json.cpython-35m-x86_64-linux-gnu.so',
   'EXTENSION'),
  ('_decimal',
   '/home/hp/django_projects/pd/lib/python3.5/lib-dynload/_decimal.cpython-35m-x86_64-linux-gnu.so',
   'EXTENSION'),
  ('markupsafe._speedups',
   '/home/hp/django_projects/pd/lib/python3.5/site-packages/markupsafe/_speedups.cpython-35m-x86_64-linux-gnu.so',
   'EXTENSION'),
  ('bsdiff4.core',
   '/home/hp/django_projects/pd/lib/python3.5/site-packages/bsdiff4/core.cpython-35m-x86_64-linux-gnu.so',
   'EXTENSION'),
  ('ed25519._ed25519',
   '/home/hp/django_projects/pd/lib/python3.5/site-packages/ed25519/_ed25519.cpython-35m-x86_64-linux-gnu.so',
   'EXTENSION'),
  ('libcrypto.so.1.0.0', '/lib/x86_64-linux-gnu/libcrypto.so.1.0.0', 'BINARY'),
  ('libssl.so.1.0.0', '/lib/x86_64-linux-gnu/libssl.so.1.0.0', 'BINARY'),
  ('libtinfo.so.5', '/lib/x86_64-linux-gnu/libtinfo.so.5', 'BINARY'),
  ('libreadline.so.6', '/lib/x86_64-linux-gnu/libreadline.so.6', 'BINARY'),
  ('liblzma.so.5', '/lib/x86_64-linux-gnu/liblzma.so.5', 'BINARY'),
  ('libbz2.so.1.0', '/lib/x86_64-linux-gnu/libbz2.so.1.0', 'BINARY'),
  ('libmpdec.so.2', '/usr/lib/x86_64-linux-gnu/libmpdec.so.2', 'BINARY'),
  ('libpython3.5m.so.1.0',
   '/usr/lib/x86_64-linux-gnu/libpython3.5m.so.1.0',
   'BINARY'),
  ('base_library.zip',
   '/home/hp/django_projects/flaskapp/.pyupdater/work/nix64/base_library.zip',
   'DATA'),
  ('certifi/cacert.pem',
   '/home/hp/django_projects/pd/lib/python3.5/site-packages/certifi/cacert.pem',
   'DATA'),
  ('lib/python3.5/config-3.5m-x86_64-linux-gnu/Makefile',
   '/home/hp/django_projects/pd/lib/python3.5/config-3.5m-x86_64-linux-gnu/Makefile',
   'DATA'),
  ('include/python3.5m/pyconfig.h',
   '/home/hp/django_projects/pd/include/python3.5m/pyconfig.h',
   'DATA')],)
