('/home/hp/django_projects/flaskapp/.pyupdater/work/nix64/nix64',
 True,
 False,
 True,
 None,
 None,
 False,
 False,
 None,
 True,
 'nix64.pkg',
 [('PYZ-00.pyz',
   '/home/hp/django_projects/flaskapp/.pyupdater/work/nix64/PYZ-00.pyz',
   'PYZ'),
  ('struct',
   '/home/hp/django_projects/pd/lib/python3.5/struct.pyo',
   'PYMODULE'),
  ('pyimod01_os_path',
   '/home/hp/django_projects/pd/lib/python3.5/site-packages/PyInstaller/loader/pyimod01_os_path.pyc',
   'PYMODULE'),
  ('pyimod02_archive',
   '/home/hp/django_projects/pd/lib/python3.5/site-packages/PyInstaller/loader/pyimod02_archive.pyc',
   'PYMODULE'),
  ('pyimod03_importers',
   '/home/hp/django_projects/pd/lib/python3.5/site-packages/PyInstaller/loader/pyimod03_importers.pyc',
   'PYMODULE'),
  ('pyiboot01_bootstrap',
   '/home/hp/django_projects/pd/lib/python3.5/site-packages/PyInstaller/loader/pyiboot01_bootstrap.py',
   'PYSOURCE'),
  ('pyi_rth_pkgres',
   '/home/hp/django_projects/pd/lib/python3.5/site-packages/PyInstaller/loader/rthooks/pyi_rth_pkgres.py',
   'PYSOURCE'),
  ('pyi_rth_certifi',
   '/home/hp/django_projects/pd/lib/python3.5/site-packages/PyInstaller/loader/rthooks/pyi_rth_certifi.py',
   'PYSOURCE'),
  ('pyi_rth_multiprocessing',
   '/home/hp/django_projects/pd/lib/python3.5/site-packages/PyInstaller/loader/rthooks/pyi_rth_multiprocessing.py',
   'PYSOURCE'),
  ('run', '/home/hp/django_projects/flaskapp/run.py', 'PYSOURCE')],
 [],
 False,
 False,
 1566077029,
 [('run',
   '/home/hp/django_projects/pd/lib/python3.5/site-packages/PyInstaller/bootloader/Linux-64bit/run',
   'EXECUTABLE')])
