('/home/hp/django_projects/flaskapp/.pyupdater/work/nix64/PKG-00.pkg',
 {'BINARY': 1,
  'DATA': 1,
  'EXECUTABLE': 1,
  'EXTENSION': 1,
  'PYMODULE': 1,
  'PYSOURCE': 1,
  'PYZ': 0},
 [('PYZ-00.pyz',
   '/home/hp/django_projects/flaskapp/.pyupdater/work/nix64/PYZ-00.pyz',
   'PYZ'),
  ('struct',
   '/home/hp/django_projects/pd/lib/python3.5/struct.pyo',
   'PYMODULE'),
  ('pyimod01_os_path',
   '/home/hp/django_projects/pd/lib/python3.5/site-packages/PyInstaller/loader/pyimod01_os_path.pyc',
   'PYMODULE'),
  ('pyimod02_archive',
   '/home/hp/django_projects/pd/lib/python3.5/site-packages/PyInstaller/loader/pyimod02_archive.pyc',
   'PYMODULE'),
  ('pyimod03_importers',
   '/home/hp/django_projects/pd/lib/python3.5/site-packages/PyInstaller/loader/pyimod03_importers.pyc',
   'PYMODULE'),
  ('pyiboot01_bootstrap',
   '/home/hp/django_projects/pd/lib/python3.5/site-packages/PyInstaller/loader/pyiboot01_bootstrap.py',
   'PYSOURCE'),
  ('pyi_rth_pkgres',
   '/home/hp/django_projects/pd/lib/python3.5/site-packages/PyInstaller/loader/rthooks/pyi_rth_pkgres.py',
   'PYSOURCE'),
  ('pyi_rth_certifi',
   '/home/hp/django_projects/pd/lib/python3.5/site-packages/PyInstaller/loader/rthooks/pyi_rth_certifi.py',
   'PYSOURCE'),
  ('pyi_rth_multiprocessing',
   '/home/hp/django_projects/pd/lib/python3.5/site-packages/PyInstaller/loader/rthooks/pyi_rth_multiprocessing.py',
   'PYSOURCE'),
  ('run', '/home/hp/django_projects/flaskapp/run.py', 'PYSOURCE')],
 True,
 False,
 False,
 [])
