('/home/hp/django_projects/flaskapp/.pyupdater/work/nix64/PYZ-00.pyz',
 [('multiprocessing.popen_fork',
   '/usr/lib/python3.5/multiprocessing/popen_fork.py',
   'PYMODULE'),
  ('multiprocessing.connection',
   '/usr/lib/python3.5/multiprocessing/connection.py',
   'PYMODULE'),
  ('multiprocessing.resource_sharer',
   '/usr/lib/python3.5/multiprocessing/resource_sharer.py',
   'PYMODULE'),
  ('multiprocessing.process',
   '/usr/lib/python3.5/multiprocessing/process.py',
   'PYMODULE'),
  ('multiprocessing.context',
   '/usr/lib/python3.5/multiprocessing/context.py',
   'PYMODULE'),
  ('multiprocessing.popen_forkserver',
   '/usr/lib/python3.5/multiprocessing/popen_forkserver.py',
   'PYMODULE'),
  ('multiprocessing.popen_spawn_posix',
   '/usr/lib/python3.5/multiprocessing/popen_spawn_posix.py',
   'PYMODULE'),
  ('multiprocessing.semaphore_tracker',
   '/usr/lib/python3.5/multiprocessing/semaphore_tracker.py',
   'PYMODULE'),
  ('multiprocessing.forkserver',
   '/usr/lib/python3.5/multiprocessing/forkserver.py',
   'PYMODULE'),
  ('multiprocessing.sharedctypes',
   '/usr/lib/python3.5/multiprocessing/sharedctypes.py',
   'PYMODULE'),
  ('multiprocessing.heap',
   '/usr/lib/python3.5/multiprocessing/heap.py',
   'PYMODULE'),
  ('bisect', '/home/hp/django_projects/pd/lib/python3.5/bisect.py', 'PYMODULE'),
  ('multiprocessing.pool',
   '/usr/lib/python3.5/multiprocessing/pool.py',
   'PYMODULE'),
  ('multiprocessing.dummy',
   '/usr/lib/python3.5/multiprocessing/dummy/__init__.py',
   'PYMODULE'),
  ('multiprocessing.dummy.connection',
   '/usr/lib/python3.5/multiprocessing/dummy/connection.py',
   'PYMODULE'),
  ('queue', '/usr/lib/python3.5/queue.py', 'PYMODULE'),
  ('multiprocessing.queues',
   '/usr/lib/python3.5/multiprocessing/queues.py',
   'PYMODULE'),
  ('multiprocessing.synchronize',
   '/usr/lib/python3.5/multiprocessing/synchronize.py',
   'PYMODULE'),
  ('multiprocessing.managers',
   '/usr/lib/python3.5/multiprocessing/managers.py',
   'PYMODULE'),
  ('xmlrpc.client', '/usr/lib/python3.5/xmlrpc/client.py', 'PYMODULE'),
  ('xmlrpc', '/usr/lib/python3.5/xmlrpc/__init__.py', 'PYMODULE'),
  ('hmac', '/home/hp/django_projects/pd/lib/python3.5/hmac.py', 'PYMODULE'),
  ('multiprocessing.reduction',
   '/usr/lib/python3.5/multiprocessing/reduction.py',
   'PYMODULE'),
  ('multiprocessing.util',
   '/usr/lib/python3.5/multiprocessing/util.py',
   'PYMODULE'),
  ('multiprocessing.popen_spawn_win32',
   '/usr/lib/python3.5/multiprocessing/popen_spawn_win32.py',
   'PYMODULE'),
  ('multiprocessing.spawn',
   '/usr/lib/python3.5/multiprocessing/spawn.py',
   'PYMODULE'),
  ('runpy', '/usr/lib/python3.5/runpy.py', 'PYMODULE'),
  ('multiprocessing',
   '/usr/lib/python3.5/multiprocessing/__init__.py',
   'PYMODULE'),
  ('pkg_resources',
   '/home/hp/django_projects/pd/lib/python3.5/site-packages/pkg_resources/__init__.py',
   'PYMODULE'),
  ('pkg_resources._vendor.packaging',
   '/home/hp/django_projects/pd/lib/python3.5/site-packages/pkg_resources/_vendor/packaging/__init__.py',
   'PYMODULE'),
  ('pkg_resources._vendor.packaging.version',
   '/home/hp/django_projects/pd/lib/python3.5/site-packages/pkg_resources/_vendor/packaging/version.py',
   'PYMODULE'),
  ('pkg_resources._vendor.pyparsing',
   '/home/hp/django_projects/pd/lib/python3.5/site-packages/pkg_resources/_vendor/pyparsing.py',
   'PYMODULE'),
  ('uuid', '/usr/lib/python3.5/uuid.py', 'PYMODULE'),
  ('ctypes.util', '/usr/lib/python3.5/ctypes/util.py', 'PYMODULE'),
  ('pkg_resources._vendor.packaging._structures',
   '/home/hp/django_projects/pd/lib/python3.5/site-packages/pkg_resources/_vendor/packaging/_structures.py',
   'PYMODULE'),
  ('pkg_resources._vendor.six',
   '/home/hp/django_projects/pd/lib/python3.5/site-packages/pkg_resources/_vendor/six.py',
   'PYMODULE'),
  ('pkg_resources._vendor.packaging.specifiers',
   '/home/hp/django_projects/pd/lib/python3.5/site-packages/pkg_resources/_vendor/packaging/specifiers.py',
   'PYMODULE'),
  ('pkg_resources._vendor.packaging.requirements',
   '/home/hp/django_projects/pd/lib/python3.5/site-packages/pkg_resources/_vendor/packaging/requirements.py',
   'PYMODULE'),
  ('pkg_resources._vendor.packaging.utils',
   '/home/hp/django_projects/pd/lib/python3.5/site-packages/pkg_resources/_vendor/packaging/utils.py',
   'PYMODULE'),
  ('pkg_resources._vendor',
   '/home/hp/django_projects/pd/lib/python3.5/site-packages/pkg_resources/_vendor/__init__.py',
   'PYMODULE'),
  ('pkg_resources._vendor.packaging.markers',
   '/home/hp/django_projects/pd/lib/python3.5/site-packages/pkg_resources/_vendor/packaging/markers.py',
   'PYMODULE'),
  ('pkg_resources._vendor.appdirs',
   '/home/hp/django_projects/pd/lib/python3.5/site-packages/pkg_resources/_vendor/appdirs.py',
   'PYMODULE'),
  ('pkg_resources._vendor.packaging._compat',
   '/home/hp/django_projects/pd/lib/python3.5/site-packages/pkg_resources/_vendor/packaging/_compat.py',
   'PYMODULE'),
  ('pkg_resources._vendor.packaging.__about__',
   '/home/hp/django_projects/pd/lib/python3.5/site-packages/pkg_resources/_vendor/packaging/__about__.py',
   'PYMODULE'),
  ('sysconfig', '/usr/lib/python3.5/sysconfig.py', 'PYMODULE'),
  ('_osx_support', '/usr/lib/python3.5/_osx_support.py', 'PYMODULE'),
  ('distutils.log', '/usr/lib/python3.5/distutils/log.py', 'PYMODULE'),
  ('distutils', '/usr/lib/python3.5/distutils/__init__.py', 'PYMODULE'),
  ('_sysconfigdata', '/usr/lib/python3.5/_sysconfigdata.py', 'PYMODULE'),
  ('_sysconfigdata_m',
   '/home/hp/django_projects/pd/lib/python3.5/plat-x86_64-linux-gnu/_sysconfigdata_m.py',
   'PYMODULE'),
  ('pkg_resources.py31compat',
   '/home/hp/django_projects/pd/lib/python3.5/site-packages/pkg_resources/py31compat.py',
   'PYMODULE'),
  ('pkg_resources.extern',
   '/home/hp/django_projects/pd/lib/python3.5/site-packages/pkg_resources/extern/__init__.py',
   'PYMODULE'),
  ('posixpath',
   '/home/hp/django_projects/pd/lib/python3.5/posixpath.py',
   'PYMODULE'),
  ('_strptime', '/usr/lib/python3.5/_strptime.py', 'PYMODULE'),
  ('datetime', '/usr/lib/python3.5/datetime.py', 'PYMODULE'),
  ('_compat_pickle', '/usr/lib/python3.5/_compat_pickle.py', 'PYMODULE'),
  ('pickle', '/usr/lib/python3.5/pickle.py', 'PYMODULE'),
  ('__future__',
   '/home/hp/django_projects/pd/lib/python3.5/__future__.py',
   'PYMODULE'),
  ('difflib', '/usr/lib/python3.5/difflib.py', 'PYMODULE'),
  ('ast', '/usr/lib/python3.5/ast.py', 'PYMODULE'),
  ('imp', '/home/hp/django_projects/pd/lib/python3.5/imp.py', 'PYMODULE'),
  ('inspect', '/usr/lib/python3.5/inspect.py', 'PYMODULE'),
  ('cmd', '/usr/lib/python3.5/cmd.py', 'PYMODULE'),
  ('bdb', '/usr/lib/python3.5/bdb.py', 'PYMODULE'),
  ('opcode', '/usr/lib/python3.5/opcode.py', 'PYMODULE'),
  ('dis', '/usr/lib/python3.5/dis.py', 'PYMODULE'),
  ('codeop', '/usr/lib/python3.5/codeop.py', 'PYMODULE'),
  ('code', '/usr/lib/python3.5/code.py', 'PYMODULE'),
  ('glob', '/usr/lib/python3.5/glob.py', 'PYMODULE'),
  ('shlex', '/usr/lib/python3.5/shlex.py', 'PYMODULE'),
  ('importlib._bootstrap',
   '/home/hp/django_projects/pd/lib/python3.5/importlib/_bootstrap.py',
   'PYMODULE'),
  ('importlib._bootstrap_external',
   '/home/hp/django_projects/pd/lib/python3.5/importlib/_bootstrap_external.py',
   'PYMODULE'),
  ('importlib.machinery',
   '/home/hp/django_projects/pd/lib/python3.5/importlib/machinery.py',
   'PYMODULE'),
  ('importlib.util',
   '/home/hp/django_projects/pd/lib/python3.5/importlib/util.py',
   'PYMODULE'),
  ('importlib.abc',
   '/home/hp/django_projects/pd/lib/python3.5/importlib/abc.py',
   'PYMODULE'),
  ('importlib',
   '/home/hp/django_projects/pd/lib/python3.5/importlib/__init__.py',
   'PYMODULE'),
  ('pkgutil', '/usr/lib/python3.5/pkgutil.py', 'PYMODULE'),
  ('ctypes._endian', '/usr/lib/python3.5/ctypes/_endian.py', 'PYMODULE'),
  ('ctypes', '/usr/lib/python3.5/ctypes/__init__.py', 'PYMODULE'),
  ('ctypes.wintypes', '/usr/lib/python3.5/ctypes/wintypes.py', 'PYMODULE'),
  ('xml', '/usr/lib/python3.5/xml/__init__.py', 'PYMODULE'),
  ('xml.sax.expatreader',
   '/usr/lib/python3.5/xml/sax/expatreader.py',
   'PYMODULE'),
  ('xml.sax.saxutils', '/usr/lib/python3.5/xml/sax/saxutils.py', 'PYMODULE'),
  ('urllib.request', '/usr/lib/python3.5/urllib/request.py', 'PYMODULE'),
  ('getpass', '/usr/lib/python3.5/getpass.py', 'PYMODULE'),
  ('nturl2path', '/usr/lib/python3.5/nturl2path.py', 'PYMODULE'),
  ('ftplib', '/usr/lib/python3.5/ftplib.py', 'PYMODULE'),
  ('netrc', '/usr/lib/python3.5/netrc.py', 'PYMODULE'),
  ('http.cookiejar', '/usr/lib/python3.5/http/cookiejar.py', 'PYMODULE'),
  ('urllib.response', '/usr/lib/python3.5/urllib/response.py', 'PYMODULE'),
  ('urllib.error', '/usr/lib/python3.5/urllib/error.py', 'PYMODULE'),
  ('xml.sax', '/usr/lib/python3.5/xml/sax/__init__.py', 'PYMODULE'),
  ('xml.sax.handler', '/usr/lib/python3.5/xml/sax/handler.py', 'PYMODULE'),
  ('xml.sax._exceptions',
   '/usr/lib/python3.5/xml/sax/_exceptions.py',
   'PYMODULE'),
  ('xml.sax.xmlreader', '/usr/lib/python3.5/xml/sax/xmlreader.py', 'PYMODULE'),
  ('xml.parsers', '/usr/lib/python3.5/xml/parsers/__init__.py', 'PYMODULE'),
  ('xml.parsers.expat', '/usr/lib/python3.5/xml/parsers/expat.py', 'PYMODULE'),
  ('plistlib', '/usr/lib/python3.5/plistlib.py', 'PYMODULE'),
  ('platform', '/usr/lib/python3.5/platform.py', 'PYMODULE'),
  ('urllib.parse', '/usr/lib/python3.5/urllib/parse.py', 'PYMODULE'),
  ('tempfile',
   '/home/hp/django_projects/pd/lib/python3.5/tempfile.py',
   'PYMODULE'),
  ('tty', '/usr/lib/python3.5/tty.py', 'PYMODULE'),
  ('pydoc_data', '/usr/lib/python3.5/pydoc_data/__init__.py', 'PYMODULE'),
  ('pydoc_data.topics', '/usr/lib/python3.5/pydoc_data/topics.py', 'PYMODULE'),
  ('html.entities', '/usr/lib/python3.5/html/entities.py', 'PYMODULE'),
  ('html', '/usr/lib/python3.5/html/__init__.py', 'PYMODULE'),
  ('ipaddress', '/usr/lib/python3.5/ipaddress.py', 'PYMODULE'),
  ('ssl', '/usr/lib/python3.5/ssl.py', 'PYMODULE'),
  ('http.client', '/usr/lib/python3.5/http/client.py', 'PYMODULE'),
  ('mimetypes', '/usr/lib/python3.5/mimetypes.py', 'PYMODULE'),
  ('socketserver', '/usr/lib/python3.5/socketserver.py', 'PYMODULE'),
  ('http', '/usr/lib/python3.5/http/__init__.py', 'PYMODULE'),
  ('http.server', '/usr/lib/python3.5/http/server.py', 'PYMODULE'),
  ('uu', '/usr/lib/python3.5/uu.py', 'PYMODULE'),
  ('email.feedparser', '/usr/lib/python3.5/email/feedparser.py', 'PYMODULE'),
  ('email.parser', '/usr/lib/python3.5/email/parser.py', 'PYMODULE'),
  ('email', '/usr/lib/python3.5/email/__init__.py', 'PYMODULE'),
  ('optparse', '/usr/lib/python3.5/optparse.py', 'PYMODULE'),
  ('calendar', '/usr/lib/python3.5/calendar.py', 'PYMODULE'),
  ('email._parseaddr', '/usr/lib/python3.5/email/_parseaddr.py', 'PYMODULE'),
  ('email.utils', '/usr/lib/python3.5/email/utils.py', 'PYMODULE'),
  ('email.errors', '/usr/lib/python3.5/email/errors.py', 'PYMODULE'),
  ('email.header', '/usr/lib/python3.5/email/header.py', 'PYMODULE'),
  ('email._policybase', '/usr/lib/python3.5/email/_policybase.py', 'PYMODULE'),
  ('email.base64mime', '/usr/lib/python3.5/email/base64mime.py', 'PYMODULE'),
  ('email.encoders', '/usr/lib/python3.5/email/encoders.py', 'PYMODULE'),
  ('email.charset', '/usr/lib/python3.5/email/charset.py', 'PYMODULE'),
  ('email._encoded_words',
   '/usr/lib/python3.5/email/_encoded_words.py',
   'PYMODULE'),
  ('hashlib',
   '/home/hp/django_projects/pd/lib/python3.5/hashlib.py',
   'PYMODULE'),
  ('random', '/home/hp/django_projects/pd/lib/python3.5/random.py', 'PYMODULE'),
  ('email.generator', '/usr/lib/python3.5/email/generator.py', 'PYMODULE'),
  ('email.iterators', '/usr/lib/python3.5/email/iterators.py', 'PYMODULE'),
  ('urllib', '/usr/lib/python3.5/urllib/__init__.py', 'PYMODULE'),
  ('email._header_value_parser',
   '/usr/lib/python3.5/email/_header_value_parser.py',
   'PYMODULE'),
  ('email.headerregistry',
   '/usr/lib/python3.5/email/headerregistry.py',
   'PYMODULE'),
  ('email.quoprimime', '/usr/lib/python3.5/email/quoprimime.py', 'PYMODULE'),
  ('email.contentmanager',
   '/usr/lib/python3.5/email/contentmanager.py',
   'PYMODULE'),
  ('email.policy', '/usr/lib/python3.5/email/policy.py', 'PYMODULE'),
  ('email.message', '/usr/lib/python3.5/email/message.py', 'PYMODULE'),
  ('gzip', '/usr/lib/python3.5/gzip.py', 'PYMODULE'),
  ('tarfile',
   '/home/hp/django_projects/pd/lib/python3.5/tarfile.py',
   'PYMODULE'),
  ('lzma', '/usr/lib/python3.5/lzma.py', 'PYMODULE'),
  ('py_compile', '/usr/lib/python3.5/py_compile.py', 'PYMODULE'),
  ('zipfile', '/usr/lib/python3.5/zipfile.py', 'PYMODULE'),
  ('shutil', '/home/hp/django_projects/pd/lib/python3.5/shutil.py', 'PYMODULE'),
  ('socket', '/usr/lib/python3.5/socket.py', 'PYMODULE'),
  ('webbrowser', '/usr/lib/python3.5/webbrowser.py', 'PYMODULE'),
  ('pydoc', '/usr/lib/python3.5/pydoc.py', 'PYMODULE'),
  ('pdb', '/usr/lib/python3.5/pdb.py', 'PYMODULE'),
  ('unittest.util', '/usr/lib/python3.5/unittest/util.py', 'PYMODULE'),
  ('unittest.result', '/usr/lib/python3.5/unittest/result.py', 'PYMODULE'),
  ('pprint', '/usr/lib/python3.5/pprint.py', 'PYMODULE'),
  ('unittest.case', '/usr/lib/python3.5/unittest/case.py', 'PYMODULE'),
  ('unittest.suite', '/usr/lib/python3.5/unittest/suite.py', 'PYMODULE'),
  ('fnmatch',
   '/home/hp/django_projects/pd/lib/python3.5/fnmatch.py',
   'PYMODULE'),
  ('unittest.loader', '/usr/lib/python3.5/unittest/loader.py', 'PYMODULE'),
  ('unittest.runner', '/usr/lib/python3.5/unittest/runner.py', 'PYMODULE'),
  ('unittest.main', '/usr/lib/python3.5/unittest/main.py', 'PYMODULE'),
  ('unittest.signals', '/usr/lib/python3.5/unittest/signals.py', 'PYMODULE'),
  ('unittest', '/usr/lib/python3.5/unittest/__init__.py', 'PYMODULE'),
  ('doctest', '/usr/lib/python3.5/doctest.py', 'PYMODULE'),
  ('quopri', '/usr/lib/python3.5/quopri.py', 'PYMODULE'),
  ('struct', '/home/hp/django_projects/pd/lib/python3.5/struct.py', 'PYMODULE'),
  ('stat', '/home/hp/django_projects/pd/lib/python3.5/stat.py', 'PYMODULE'),
  ('genericpath',
   '/home/hp/django_projects/pd/lib/python3.5/genericpath.py',
   'PYMODULE'),
  ('string', '/usr/lib/python3.5/string.py', 'PYMODULE'),
  ('ntpath', '/home/hp/django_projects/pd/lib/python3.5/ntpath.py', 'PYMODULE'),
  ('signal', '/usr/lib/python3.5/signal.py', 'PYMODULE'),
  ('selectors', '/usr/lib/python3.5/selectors.py', 'PYMODULE'),
  ('subprocess', '/usr/lib/python3.5/subprocess.py', 'PYMODULE'),
  ('token', '/home/hp/django_projects/pd/lib/python3.5/token.py', 'PYMODULE'),
  ('textwrap', '/usr/lib/python3.5/textwrap.py', 'PYMODULE'),
  ('tokenize',
   '/home/hp/django_projects/pd/lib/python3.5/tokenize.py',
   'PYMODULE'),
  ('gettext', '/usr/lib/python3.5/gettext.py', 'PYMODULE'),
  ('getopt', '/usr/lib/python3.5/getopt.py', 'PYMODULE'),
  ('base64', '/home/hp/django_projects/pd/lib/python3.5/base64.py', 'PYMODULE'),
  ('stringprep', '/usr/lib/python3.5/stringprep.py', 'PYMODULE'),
  ('_compression', '/usr/lib/python3.5/_compression.py', 'PYMODULE'),
  ('contextlib', '/usr/lib/python3.5/contextlib.py', 'PYMODULE'),
  ('_threading_local', '/usr/lib/python3.5/_threading_local.py', 'PYMODULE'),
  ('_dummy_thread',
   '/home/hp/django_projects/pd/lib/python3.5/_dummy_thread.py',
   'PYMODULE'),
  ('dummy_threading', '/usr/lib/python3.5/dummy_threading.py', 'PYMODULE'),
  ('bz2', '/usr/lib/python3.5/bz2.py', 'PYMODULE'),
  ('copy', '/home/hp/django_projects/pd/lib/python3.5/copy.py', 'PYMODULE'),
  ('main.app', '/home/hp/django_projects/flaskapp/main/app.py', 'PYMODULE'),
  ('flask',
   '/home/hp/django_projects/pd/lib/python3.5/site-packages/flask/__init__.py',
   'PYMODULE'),
  ('flask.templating',
   '/home/hp/django_projects/pd/lib/python3.5/site-packages/flask/templating.py',
   'PYMODULE'),
  ('flask.debughelpers',
   '/home/hp/django_projects/pd/lib/python3.5/site-packages/flask/debughelpers.py',
   'PYMODULE'),
  ('flask.signals',
   '/home/hp/django_projects/pd/lib/python3.5/site-packages/flask/signals.py',
   'PYMODULE'),
  ('flask.helpers',
   '/home/hp/django_projects/pd/lib/python3.5/site-packages/flask/helpers.py',
   'PYMODULE'),
  ('werkzeug.wsgi',
   '/home/hp/django_projects/pd/lib/python3.5/site-packages/werkzeug/wsgi.py',
   'PYMODULE'),
  ('werkzeug.middleware.shared_data',
   '/home/hp/django_projects/pd/lib/python3.5/site-packages/werkzeug/middleware/shared_data.py',
   'PYMODULE'),
  ('werkzeug.middleware',
   '/home/hp/django_projects/pd/lib/python3.5/site-packages/werkzeug/middleware/__init__.py',
   'PYMODULE'),
  ('werkzeug.security',
   '/home/hp/django_projects/pd/lib/python3.5/site-packages/werkzeug/security.py',
   'PYMODULE'),
  ('werkzeug.http',
   '/home/hp/django_projects/pd/lib/python3.5/site-packages/werkzeug/http.py',
   'PYMODULE'),
  ('werkzeug.filesystem',
   '/home/hp/django_projects/pd/lib/python3.5/site-packages/werkzeug/filesystem.py',
   'PYMODULE'),
  ('werkzeug.middleware.http_proxy',
   '/home/hp/django_projects/pd/lib/python3.5/site-packages/werkzeug/middleware/http_proxy.py',
   'PYMODULE'),
  ('werkzeug',
   '/home/hp/django_projects/pd/lib/python3.5/site-packages/werkzeug/__init__.py',
   'PYMODULE'),
  ('werkzeug.middleware.dispatcher',
   '/home/hp/django_projects/pd/lib/python3.5/site-packages/werkzeug/middleware/dispatcher.py',
   'PYMODULE'),
  ('werkzeug._internal',
   '/home/hp/django_projects/pd/lib/python3.5/site-packages/werkzeug/_internal.py',
   'PYMODULE'),
  ('werkzeug._compat',
   '/home/hp/django_projects/pd/lib/python3.5/site-packages/werkzeug/_compat.py',
   'PYMODULE'),
  ('werkzeug.urls',
   '/home/hp/django_projects/pd/lib/python3.5/site-packages/werkzeug/urls.py',
   'PYMODULE'),
  ('werkzeug.routing',
   '/home/hp/django_projects/pd/lib/python3.5/site-packages/werkzeug/routing.py',
   'PYMODULE'),
  ('werkzeug.datastructures',
   '/home/hp/django_projects/pd/lib/python3.5/site-packages/werkzeug/datastructures.py',
   'PYMODULE'),
  ('flask.globals',
   '/home/hp/django_projects/pd/lib/python3.5/site-packages/flask/globals.py',
   'PYMODULE'),
  ('werkzeug.local',
   '/home/hp/django_projects/pd/lib/python3.5/site-packages/werkzeug/local.py',
   'PYMODULE'),
  ('flask.ctx',
   '/home/hp/django_projects/pd/lib/python3.5/site-packages/flask/ctx.py',
   'PYMODULE'),
  ('flask.config',
   '/home/hp/django_projects/pd/lib/python3.5/site-packages/flask/config.py',
   'PYMODULE'),
  ('flask.blueprints',
   '/home/hp/django_projects/pd/lib/python3.5/site-packages/flask/blueprints.py',
   'PYMODULE'),
  ('flask.app',
   '/home/hp/django_projects/pd/lib/python3.5/site-packages/flask/app.py',
   'PYMODULE'),
  ('flask.testing',
   '/home/hp/django_projects/pd/lib/python3.5/site-packages/flask/testing.py',
   'PYMODULE'),
  ('click.testing',
   '/home/hp/django_projects/pd/lib/python3.5/site-packages/click/testing.py',
   'PYMODULE'),
  ('click',
   '/home/hp/django_projects/pd/lib/python3.5/site-packages/click/__init__.py',
   'PYMODULE'),
  ('click.parser',
   '/home/hp/django_projects/pd/lib/python3.5/site-packages/click/parser.py',
   'PYMODULE'),
  ('click.formatting',
   '/home/hp/django_projects/pd/lib/python3.5/site-packages/click/formatting.py',
   'PYMODULE'),
  ('click._textwrap',
   '/home/hp/django_projects/pd/lib/python3.5/site-packages/click/_textwrap.py',
   'PYMODULE'),
  ('click.exceptions',
   '/home/hp/django_projects/pd/lib/python3.5/site-packages/click/exceptions.py',
   'PYMODULE'),
  ('click.termui',
   '/home/hp/django_projects/pd/lib/python3.5/site-packages/click/termui.py',
   'PYMODULE'),
  ('click._termui_impl',
   '/home/hp/django_projects/pd/lib/python3.5/site-packages/click/_termui_impl.py',
   'PYMODULE'),
  ('click.utils',
   '/home/hp/django_projects/pd/lib/python3.5/site-packages/click/utils.py',
   'PYMODULE'),
  ('click._winconsole',
   '/home/hp/django_projects/pd/lib/python3.5/site-packages/click/_winconsole.py',
   'PYMODULE'),
  ('click.types',
   '/home/hp/django_projects/pd/lib/python3.5/site-packages/click/types.py',
   'PYMODULE'),
  ('click.decorators',
   '/home/hp/django_projects/pd/lib/python3.5/site-packages/click/decorators.py',
   'PYMODULE'),
  ('click._unicodefun',
   '/home/hp/django_projects/pd/lib/python3.5/site-packages/click/_unicodefun.py',
   'PYMODULE'),
  ('click.globals',
   '/home/hp/django_projects/pd/lib/python3.5/site-packages/click/globals.py',
   'PYMODULE'),
  ('click.core',
   '/home/hp/django_projects/pd/lib/python3.5/site-packages/click/core.py',
   'PYMODULE'),
  ('click._bashcomplete',
   '/home/hp/django_projects/pd/lib/python3.5/site-packages/click/_bashcomplete.py',
   'PYMODULE'),
  ('click._compat',
   '/home/hp/django_projects/pd/lib/python3.5/site-packages/click/_compat.py',
   'PYMODULE'),
  ('werkzeug.test',
   '/home/hp/django_projects/pd/lib/python3.5/site-packages/werkzeug/test.py',
   'PYMODULE'),
  ('json', '/usr/lib/python3.5/json/__init__.py', 'PYMODULE'),
  ('json.encoder', '/usr/lib/python3.5/json/encoder.py', 'PYMODULE'),
  ('json.decoder', '/usr/lib/python3.5/json/decoder.py', 'PYMODULE'),
  ('json.scanner', '/usr/lib/python3.5/json/scanner.py', 'PYMODULE'),
  ('werkzeug.serving',
   '/home/hp/django_projects/pd/lib/python3.5/site-packages/werkzeug/serving.py',
   'PYMODULE'),
  ('werkzeug._reloader',
   '/home/hp/django_projects/pd/lib/python3.5/site-packages/werkzeug/_reloader.py',
   'PYMODULE'),
  ('werkzeug.debug',
   '/home/hp/django_projects/pd/lib/python3.5/site-packages/werkzeug/debug/__init__.py',
   'PYMODULE'),
  ('werkzeug.debug.repr',
   '/home/hp/django_projects/pd/lib/python3.5/site-packages/werkzeug/debug/repr.py',
   'PYMODULE'),
  ('werkzeug.debug.console',
   '/home/hp/django_projects/pd/lib/python3.5/site-packages/werkzeug/debug/console.py',
   'PYMODULE'),
  ('werkzeug.debug.tbtools',
   '/home/hp/django_projects/pd/lib/python3.5/site-packages/werkzeug/debug/tbtools.py',
   'PYMODULE'),
  ('flask.wrappers',
   '/home/hp/django_projects/pd/lib/python3.5/site-packages/flask/wrappers.py',
   'PYMODULE'),
  ('werkzeug.wrappers.json',
   '/home/hp/django_projects/pd/lib/python3.5/site-packages/werkzeug/wrappers/json.py',
   'PYMODULE'),
  ('flask.sessions',
   '/home/hp/django_projects/pd/lib/python3.5/site-packages/flask/sessions.py',
   'PYMODULE'),
  ('flask.json.tag',
   '/home/hp/django_projects/pd/lib/python3.5/site-packages/flask/json/tag.py',
   'PYMODULE'),
  ('itsdangerous',
   '/home/hp/django_projects/pd/lib/python3.5/site-packages/itsdangerous/__init__.py',
   'PYMODULE'),
  ('itsdangerous.url_safe',
   '/home/hp/django_projects/pd/lib/python3.5/site-packages/itsdangerous/url_safe.py',
   'PYMODULE'),
  ('itsdangerous.timed',
   '/home/hp/django_projects/pd/lib/python3.5/site-packages/itsdangerous/timed.py',
   'PYMODULE'),
  ('itsdangerous._compat',
   '/home/hp/django_projects/pd/lib/python3.5/site-packages/itsdangerous/_compat.py',
   'PYMODULE'),
  ('numbers', '/usr/lib/python3.5/numbers.py', 'PYMODULE'),
  ('decimal', '/usr/lib/python3.5/decimal.py', 'PYMODULE'),
  ('_pydecimal', '/usr/lib/python3.5/_pydecimal.py', 'PYMODULE'),
  ('itsdangerous.signer',
   '/home/hp/django_projects/pd/lib/python3.5/site-packages/itsdangerous/signer.py',
   'PYMODULE'),
  ('itsdangerous.serializer',
   '/home/hp/django_projects/pd/lib/python3.5/site-packages/itsdangerous/serializer.py',
   'PYMODULE'),
  ('itsdangerous.jws',
   '/home/hp/django_projects/pd/lib/python3.5/site-packages/itsdangerous/jws.py',
   'PYMODULE'),
  ('itsdangerous.exc',
   '/home/hp/django_projects/pd/lib/python3.5/site-packages/itsdangerous/exc.py',
   'PYMODULE'),
  ('itsdangerous.encoding',
   '/home/hp/django_projects/pd/lib/python3.5/site-packages/itsdangerous/encoding.py',
   'PYMODULE'),
  ('itsdangerous._json',
   '/home/hp/django_projects/pd/lib/python3.5/site-packages/itsdangerous/_json.py',
   'PYMODULE'),
  ('flask.logging',
   '/home/hp/django_projects/pd/lib/python3.5/site-packages/flask/logging.py',
   'PYMODULE'),
  ('werkzeug.wrappers',
   '/home/hp/django_projects/pd/lib/python3.5/site-packages/werkzeug/wrappers/__init__.py',
   'PYMODULE'),
  ('werkzeug.wrappers.user_agent',
   '/home/hp/django_projects/pd/lib/python3.5/site-packages/werkzeug/wrappers/user_agent.py',
   'PYMODULE'),
  ('werkzeug.useragents',
   '/home/hp/django_projects/pd/lib/python3.5/site-packages/werkzeug/useragents.py',
   'PYMODULE'),
  ('werkzeug.wrappers.response',
   '/home/hp/django_projects/pd/lib/python3.5/site-packages/werkzeug/wrappers/response.py',
   'PYMODULE'),
  ('werkzeug.wrappers.request',
   '/home/hp/django_projects/pd/lib/python3.5/site-packages/werkzeug/wrappers/request.py',
   'PYMODULE'),
  ('werkzeug.wrappers.etag',
   '/home/hp/django_projects/pd/lib/python3.5/site-packages/werkzeug/wrappers/etag.py',
   'PYMODULE'),
  ('werkzeug.wrappers.common_descriptors',
   '/home/hp/django_projects/pd/lib/python3.5/site-packages/werkzeug/wrappers/common_descriptors.py',
   'PYMODULE'),
  ('werkzeug.wrappers.base_response',
   '/home/hp/django_projects/pd/lib/python3.5/site-packages/werkzeug/wrappers/base_response.py',
   'PYMODULE'),
  ('werkzeug.wrappers.base_request',
   '/home/hp/django_projects/pd/lib/python3.5/site-packages/werkzeug/wrappers/base_request.py',
   'PYMODULE'),
  ('werkzeug.formparser',
   '/home/hp/django_projects/pd/lib/python3.5/site-packages/werkzeug/formparser.py',
   'PYMODULE'),
  ('werkzeug.wrappers.auth',
   '/home/hp/django_projects/pd/lib/python3.5/site-packages/werkzeug/wrappers/auth.py',
   'PYMODULE'),
  ('werkzeug.wrappers.accept',
   '/home/hp/django_projects/pd/lib/python3.5/site-packages/werkzeug/wrappers/accept.py',
   'PYMODULE'),
  ('flask.cli',
   '/home/hp/django_projects/pd/lib/python3.5/site-packages/flask/cli.py',
   'PYMODULE'),
  ('flask._compat',
   '/home/hp/django_projects/pd/lib/python3.5/site-packages/flask/_compat.py',
   'PYMODULE'),
  ('flask.json',
   '/home/hp/django_projects/pd/lib/python3.5/site-packages/flask/json/__init__.py',
   'PYMODULE'),
  ('werkzeug.utils',
   '/home/hp/django_projects/pd/lib/python3.5/site-packages/werkzeug/utils.py',
   'PYMODULE'),
  ('werkzeug.exceptions',
   '/home/hp/django_projects/pd/lib/python3.5/site-packages/werkzeug/exceptions.py',
   'PYMODULE'),
  ('jinja2',
   '/home/hp/django_projects/pd/lib/python3.5/site-packages/jinja2/__init__.py',
   'PYMODULE'),
  ('jinja2.ext',
   '/home/hp/django_projects/pd/lib/python3.5/site-packages/jinja2/ext.py',
   'PYMODULE'),
  ('jinja2._compat',
   '/home/hp/django_projects/pd/lib/python3.5/site-packages/jinja2/_compat.py',
   'PYMODULE'),
  ('jinja2.defaults',
   '/home/hp/django_projects/pd/lib/python3.5/site-packages/jinja2/defaults.py',
   'PYMODULE'),
  ('jinja2.tests',
   '/home/hp/django_projects/pd/lib/python3.5/site-packages/jinja2/tests.py',
   'PYMODULE'),
  ('jinja2.utils',
   '/home/hp/django_projects/pd/lib/python3.5/site-packages/jinja2/utils.py',
   'PYMODULE'),
  ('markupsafe',
   '/home/hp/django_projects/pd/lib/python3.5/site-packages/markupsafe/__init__.py',
   'PYMODULE'),
  ('markupsafe._native',
   '/home/hp/django_projects/pd/lib/python3.5/site-packages/markupsafe/_native.py',
   'PYMODULE'),
  ('markupsafe._constants',
   '/home/hp/django_projects/pd/lib/python3.5/site-packages/markupsafe/_constants.py',
   'PYMODULE'),
  ('markupsafe._compat',
   '/home/hp/django_projects/pd/lib/python3.5/site-packages/markupsafe/_compat.py',
   'PYMODULE'),
  ('jinja2.constants',
   '/home/hp/django_projects/pd/lib/python3.5/site-packages/jinja2/constants.py',
   'PYMODULE'),
  ('jinja2.lexer',
   '/home/hp/django_projects/pd/lib/python3.5/site-packages/jinja2/lexer.py',
   'PYMODULE'),
  ('jinja2.filters',
   '/home/hp/django_projects/pd/lib/python3.5/site-packages/jinja2/filters.py',
   'PYMODULE'),
  ('jinja2.exceptions',
   '/home/hp/django_projects/pd/lib/python3.5/site-packages/jinja2/exceptions.py',
   'PYMODULE'),
  ('jinja2.runtime',
   '/home/hp/django_projects/pd/lib/python3.5/site-packages/jinja2/runtime.py',
   'PYMODULE'),
  ('jinja2.bccache',
   '/home/hp/django_projects/pd/lib/python3.5/site-packages/jinja2/bccache.py',
   'PYMODULE'),
  ('jinja2.loaders',
   '/home/hp/django_projects/pd/lib/python3.5/site-packages/jinja2/loaders.py',
   'PYMODULE'),
  ('jinja2.environment',
   '/home/hp/django_projects/pd/lib/python3.5/site-packages/jinja2/environment.py',
   'PYMODULE'),
  ('jinja2.debug',
   '/home/hp/django_projects/pd/lib/python3.5/site-packages/jinja2/debug.py',
   'PYMODULE'),
  ('jinja2.compiler',
   '/home/hp/django_projects/pd/lib/python3.5/site-packages/jinja2/compiler.py',
   'PYMODULE'),
  ('jinja2.idtracking',
   '/home/hp/django_projects/pd/lib/python3.5/site-packages/jinja2/idtracking.py',
   'PYMODULE'),
  ('jinja2.optimizer',
   '/home/hp/django_projects/pd/lib/python3.5/site-packages/jinja2/optimizer.py',
   'PYMODULE'),
  ('jinja2.visitor',
   '/home/hp/django_projects/pd/lib/python3.5/site-packages/jinja2/visitor.py',
   'PYMODULE'),
  ('jinja2.parser',
   '/home/hp/django_projects/pd/lib/python3.5/site-packages/jinja2/parser.py',
   'PYMODULE'),
  ('jinja2.nodes',
   '/home/hp/django_projects/pd/lib/python3.5/site-packages/jinja2/nodes.py',
   'PYMODULE'),
  ('jinja2._identifier',
   '/home/hp/django_projects/pd/lib/python3.5/site-packages/jinja2/_identifier.py',
   'PYMODULE'),
  ('client_config',
   '/home/hp/django_projects/flaskapp/client_config.py',
   'PYMODULE'),
  ('main.fileserver',
   '/home/hp/django_projects/flaskapp/main/fileserver.py',
   'PYMODULE'),
  ('requests',
   '/home/hp/django_projects/pd/lib/python3.5/site-packages/requests/__init__.py',
   'PYMODULE'),
  ('requests.status_codes',
   '/home/hp/django_projects/pd/lib/python3.5/site-packages/requests/status_codes.py',
   'PYMODULE'),
  ('requests.structures',
   '/home/hp/django_projects/pd/lib/python3.5/site-packages/requests/structures.py',
   'PYMODULE'),
  ('requests.compat',
   '/home/hp/django_projects/pd/lib/python3.5/site-packages/requests/compat.py',
   'PYMODULE'),
  ('http.cookies', '/usr/lib/python3.5/http/cookies.py', 'PYMODULE'),
  ('requests.api',
   '/home/hp/django_projects/pd/lib/python3.5/site-packages/requests/api.py',
   'PYMODULE'),
  ('requests.sessions',
   '/home/hp/django_projects/pd/lib/python3.5/site-packages/requests/sessions.py',
   'PYMODULE'),
  ('requests.adapters',
   '/home/hp/django_projects/pd/lib/python3.5/site-packages/requests/adapters.py',
   'PYMODULE'),
  ('urllib3.contrib.socks',
   '/home/hp/django_projects/pd/lib/python3.5/site-packages/urllib3/contrib/socks.py',
   'PYMODULE'),
  ('urllib3.util.url',
   '/home/hp/django_projects/pd/lib/python3.5/site-packages/urllib3/util/url.py',
   'PYMODULE'),
  ('idna',
   '/home/hp/django_projects/pd/lib/python3.5/site-packages/idna/__init__.py',
   'PYMODULE'),
  ('idna.core',
   '/home/hp/django_projects/pd/lib/python3.5/site-packages/idna/core.py',
   'PYMODULE'),
  ('idna.uts46data',
   '/home/hp/django_projects/pd/lib/python3.5/site-packages/idna/uts46data.py',
   'PYMODULE'),
  ('idna.intranges',
   '/home/hp/django_projects/pd/lib/python3.5/site-packages/idna/intranges.py',
   'PYMODULE'),
  ('idna.idnadata',
   '/home/hp/django_projects/pd/lib/python3.5/site-packages/idna/idnadata.py',
   'PYMODULE'),
  ('idna.package_data',
   '/home/hp/django_projects/pd/lib/python3.5/site-packages/idna/package_data.py',
   'PYMODULE'),
  ('urllib3.packages.rfc3986.misc',
   '/home/hp/django_projects/pd/lib/python3.5/site-packages/urllib3/packages/rfc3986/misc.py',
   'PYMODULE'),
  ('urllib3.packages.rfc3986.compat',
   '/home/hp/django_projects/pd/lib/python3.5/site-packages/urllib3/packages/rfc3986/compat.py',
   'PYMODULE'),
  ('urllib3.packages.rfc3986.normalizers',
   '/home/hp/django_projects/pd/lib/python3.5/site-packages/urllib3/packages/rfc3986/normalizers.py',
   'PYMODULE'),
  ('urllib3.packages.rfc3986.abnf_regexp',
   '/home/hp/django_projects/pd/lib/python3.5/site-packages/urllib3/packages/rfc3986/abnf_regexp.py',
   'PYMODULE'),
  ('urllib3.packages.rfc3986.validators',
   '/home/hp/django_projects/pd/lib/python3.5/site-packages/urllib3/packages/rfc3986/validators.py',
   'PYMODULE'),
  ('urllib3.packages.rfc3986.exceptions',
   '/home/hp/django_projects/pd/lib/python3.5/site-packages/urllib3/packages/rfc3986/exceptions.py',
   'PYMODULE'),
  ('urllib3.packages.rfc3986',
   '/home/hp/django_projects/pd/lib/python3.5/site-packages/urllib3/packages/rfc3986/__init__.py',
   'PYMODULE'),
  ('urllib3.packages.rfc3986.parseresult',
   '/home/hp/django_projects/pd/lib/python3.5/site-packages/urllib3/packages/rfc3986/parseresult.py',
   'PYMODULE'),
  ('urllib3.packages.rfc3986.api',
   '/home/hp/django_projects/pd/lib/python3.5/site-packages/urllib3/packages/rfc3986/api.py',
   'PYMODULE'),
  ('urllib3.packages.rfc3986.iri',
   '/home/hp/django_projects/pd/lib/python3.5/site-packages/urllib3/packages/rfc3986/iri.py',
   'PYMODULE'),
  ('urllib3.packages.rfc3986.uri',
   '/home/hp/django_projects/pd/lib/python3.5/site-packages/urllib3/packages/rfc3986/uri.py',
   'PYMODULE'),
  ('urllib3.packages.rfc3986._mixin',
   '/home/hp/django_projects/pd/lib/python3.5/site-packages/urllib3/packages/rfc3986/_mixin.py',
   'PYMODULE'),
  ('urllib3.packages.six',
   '/home/hp/django_projects/pd/lib/python3.5/site-packages/urllib3/packages/six.py',
   'PYMODULE'),
  ('urllib3.packages',
   '/home/hp/django_projects/pd/lib/python3.5/site-packages/urllib3/packages/__init__.py',
   'PYMODULE'),
  ('urllib3.packages.ssl_match_hostname',
   '/home/hp/django_projects/pd/lib/python3.5/site-packages/urllib3/packages/ssl_match_hostname/__init__.py',
   'PYMODULE'),
  ('urllib3.packages.ssl_match_hostname._implementation',
   '/home/hp/django_projects/pd/lib/python3.5/site-packages/urllib3/packages/ssl_match_hostname/_implementation.py',
   'PYMODULE'),
  ('urllib3.connectionpool',
   '/home/hp/django_projects/pd/lib/python3.5/site-packages/urllib3/connectionpool.py',
   'PYMODULE'),
  ('urllib3.util.queue',
   '/home/hp/django_projects/pd/lib/python3.5/site-packages/urllib3/util/queue.py',
   'PYMODULE'),
  ('urllib3.util.timeout',
   '/home/hp/django_projects/pd/lib/python3.5/site-packages/urllib3/util/timeout.py',
   'PYMODULE'),
  ('urllib3.util.response',
   '/home/hp/django_projects/pd/lib/python3.5/site-packages/urllib3/util/response.py',
   'PYMODULE'),
  ('urllib3.util.request',
   '/home/hp/django_projects/pd/lib/python3.5/site-packages/urllib3/util/request.py',
   'PYMODULE'),
  ('urllib3.util.connection',
   '/home/hp/django_projects/pd/lib/python3.5/site-packages/urllib3/util/connection.py',
   'PYMODULE'),
  ('urllib3.contrib._appengine_environ',
   '/home/hp/django_projects/pd/lib/python3.5/site-packages/urllib3/contrib/_appengine_environ.py',
   'PYMODULE'),
  ('urllib3.util.wait',
   '/home/hp/django_projects/pd/lib/python3.5/site-packages/urllib3/util/wait.py',
   'PYMODULE'),
  ('urllib3.request',
   '/home/hp/django_projects/pd/lib/python3.5/site-packages/urllib3/request.py',
   'PYMODULE'),
  ('urllib3.filepost',
   '/home/hp/django_projects/pd/lib/python3.5/site-packages/urllib3/filepost.py',
   'PYMODULE'),
  ('urllib3.fields',
   '/home/hp/django_projects/pd/lib/python3.5/site-packages/urllib3/fields.py',
   'PYMODULE'),
  ('urllib3.connection',
   '/home/hp/django_projects/pd/lib/python3.5/site-packages/urllib3/connection.py',
   'PYMODULE'),
  ('urllib3._collections',
   '/home/hp/django_projects/pd/lib/python3.5/site-packages/urllib3/_collections.py',
   'PYMODULE'),
  ('urllib3.util.ssl_',
   '/home/hp/django_projects/pd/lib/python3.5/site-packages/urllib3/util/ssl_.py',
   'PYMODULE'),
  ('urllib3.util.retry',
   '/home/hp/django_projects/pd/lib/python3.5/site-packages/urllib3/util/retry.py',
   'PYMODULE'),
  ('urllib3.util',
   '/home/hp/django_projects/pd/lib/python3.5/site-packages/urllib3/util/__init__.py',
   'PYMODULE'),
  ('urllib3.response',
   '/home/hp/django_projects/pd/lib/python3.5/site-packages/urllib3/response.py',
   'PYMODULE'),
  ('urllib3.poolmanager',
   '/home/hp/django_projects/pd/lib/python3.5/site-packages/urllib3/poolmanager.py',
   'PYMODULE'),
  ('requests._internal_utils',
   '/home/hp/django_projects/pd/lib/python3.5/site-packages/requests/_internal_utils.py',
   'PYMODULE'),
  ('requests.hooks',
   '/home/hp/django_projects/pd/lib/python3.5/site-packages/requests/hooks.py',
   'PYMODULE'),
  ('requests.cookies',
   '/home/hp/django_projects/pd/lib/python3.5/site-packages/requests/cookies.py',
   'PYMODULE'),
  ('requests.auth',
   '/home/hp/django_projects/pd/lib/python3.5/site-packages/requests/auth.py',
   'PYMODULE'),
  ('requests.models',
   '/home/hp/django_projects/pd/lib/python3.5/site-packages/requests/models.py',
   'PYMODULE'),
  ('requests.packages',
   '/home/hp/django_projects/pd/lib/python3.5/site-packages/requests/packages.py',
   'PYMODULE'),
  ('requests.utils',
   '/home/hp/django_projects/pd/lib/python3.5/site-packages/requests/utils.py',
   'PYMODULE'),
  ('requests.certs',
   '/home/hp/django_projects/pd/lib/python3.5/site-packages/requests/certs.py',
   'PYMODULE'),
  ('certifi',
   '/home/hp/django_projects/pd/lib/python3.5/site-packages/certifi/__init__.py',
   'PYMODULE'),
  ('certifi.core',
   '/home/hp/django_projects/pd/lib/python3.5/site-packages/certifi/core.py',
   'PYMODULE'),
  ('requests.__version__',
   '/home/hp/django_projects/pd/lib/python3.5/site-packages/requests/__version__.py',
   'PYMODULE'),
  ('urllib3.exceptions',
   '/home/hp/django_projects/pd/lib/python3.5/site-packages/urllib3/exceptions.py',
   'PYMODULE'),
  ('urllib3.contrib.pyopenssl',
   '/home/hp/django_projects/pd/lib/python3.5/site-packages/urllib3/contrib/pyopenssl.py',
   'PYMODULE'),
  ('urllib3.packages.backports.makefile',
   '/home/hp/django_projects/pd/lib/python3.5/site-packages/urllib3/packages/backports/makefile.py',
   'PYMODULE'),
  ('urllib3.packages.backports',
   '/home/hp/django_projects/pd/lib/python3.5/site-packages/urllib3/packages/backports/__init__.py',
   'PYMODULE'),
  ('urllib3.contrib',
   '/home/hp/django_projects/pd/lib/python3.5/site-packages/urllib3/contrib/__init__.py',
   'PYMODULE'),
  ('requests.exceptions',
   '/home/hp/django_projects/pd/lib/python3.5/site-packages/requests/exceptions.py',
   'PYMODULE'),
  ('chardet',
   '/home/hp/django_projects/pd/lib/python3.5/site-packages/chardet/__init__.py',
   'PYMODULE'),
  ('chardet.version',
   '/home/hp/django_projects/pd/lib/python3.5/site-packages/chardet/version.py',
   'PYMODULE'),
  ('chardet.universaldetector',
   '/home/hp/django_projects/pd/lib/python3.5/site-packages/chardet/universaldetector.py',
   'PYMODULE'),
  ('chardet.sbcsgroupprober',
   '/home/hp/django_projects/pd/lib/python3.5/site-packages/chardet/sbcsgroupprober.py',
   'PYMODULE'),
  ('chardet.langturkishmodel',
   '/home/hp/django_projects/pd/lib/python3.5/site-packages/chardet/langturkishmodel.py',
   'PYMODULE'),
  ('chardet.hebrewprober',
   '/home/hp/django_projects/pd/lib/python3.5/site-packages/chardet/hebrewprober.py',
   'PYMODULE'),
  ('chardet.charsetprober',
   '/home/hp/django_projects/pd/lib/python3.5/site-packages/chardet/charsetprober.py',
   'PYMODULE'),
  ('chardet.langhebrewmodel',
   '/home/hp/django_projects/pd/lib/python3.5/site-packages/chardet/langhebrewmodel.py',
   'PYMODULE'),
  ('chardet.langthaimodel',
   '/home/hp/django_projects/pd/lib/python3.5/site-packages/chardet/langthaimodel.py',
   'PYMODULE'),
  ('chardet.langbulgarianmodel',
   '/home/hp/django_projects/pd/lib/python3.5/site-packages/chardet/langbulgarianmodel.py',
   'PYMODULE'),
  ('chardet.langgreekmodel',
   '/home/hp/django_projects/pd/lib/python3.5/site-packages/chardet/langgreekmodel.py',
   'PYMODULE'),
  ('chardet.langcyrillicmodel',
   '/home/hp/django_projects/pd/lib/python3.5/site-packages/chardet/langcyrillicmodel.py',
   'PYMODULE'),
  ('chardet.sbcharsetprober',
   '/home/hp/django_projects/pd/lib/python3.5/site-packages/chardet/sbcharsetprober.py',
   'PYMODULE'),
  ('chardet.mbcsgroupprober',
   '/home/hp/django_projects/pd/lib/python3.5/site-packages/chardet/mbcsgroupprober.py',
   'PYMODULE'),
  ('chardet.euctwprober',
   '/home/hp/django_projects/pd/lib/python3.5/site-packages/chardet/euctwprober.py',
   'PYMODULE'),
  ('chardet.mbcssm',
   '/home/hp/django_projects/pd/lib/python3.5/site-packages/chardet/mbcssm.py',
   'PYMODULE'),
  ('chardet.chardistribution',
   '/home/hp/django_projects/pd/lib/python3.5/site-packages/chardet/chardistribution.py',
   'PYMODULE'),
  ('chardet.jisfreq',
   '/home/hp/django_projects/pd/lib/python3.5/site-packages/chardet/jisfreq.py',
   'PYMODULE'),
  ('chardet.big5freq',
   '/home/hp/django_projects/pd/lib/python3.5/site-packages/chardet/big5freq.py',
   'PYMODULE'),
  ('chardet.gb2312freq',
   '/home/hp/django_projects/pd/lib/python3.5/site-packages/chardet/gb2312freq.py',
   'PYMODULE'),
  ('chardet.euckrfreq',
   '/home/hp/django_projects/pd/lib/python3.5/site-packages/chardet/euckrfreq.py',
   'PYMODULE'),
  ('chardet.euctwfreq',
   '/home/hp/django_projects/pd/lib/python3.5/site-packages/chardet/euctwfreq.py',
   'PYMODULE'),
  ('chardet.codingstatemachine',
   '/home/hp/django_projects/pd/lib/python3.5/site-packages/chardet/codingstatemachine.py',
   'PYMODULE'),
  ('chardet.mbcharsetprober',
   '/home/hp/django_projects/pd/lib/python3.5/site-packages/chardet/mbcharsetprober.py',
   'PYMODULE'),
  ('chardet.big5prober',
   '/home/hp/django_projects/pd/lib/python3.5/site-packages/chardet/big5prober.py',
   'PYMODULE'),
  ('chardet.cp949prober',
   '/home/hp/django_projects/pd/lib/python3.5/site-packages/chardet/cp949prober.py',
   'PYMODULE'),
  ('chardet.euckrprober',
   '/home/hp/django_projects/pd/lib/python3.5/site-packages/chardet/euckrprober.py',
   'PYMODULE'),
  ('chardet.gb2312prober',
   '/home/hp/django_projects/pd/lib/python3.5/site-packages/chardet/gb2312prober.py',
   'PYMODULE'),
  ('chardet.eucjpprober',
   '/home/hp/django_projects/pd/lib/python3.5/site-packages/chardet/eucjpprober.py',
   'PYMODULE'),
  ('chardet.jpcntx',
   '/home/hp/django_projects/pd/lib/python3.5/site-packages/chardet/jpcntx.py',
   'PYMODULE'),
  ('chardet.sjisprober',
   '/home/hp/django_projects/pd/lib/python3.5/site-packages/chardet/sjisprober.py',
   'PYMODULE'),
  ('chardet.utf8prober',
   '/home/hp/django_projects/pd/lib/python3.5/site-packages/chardet/utf8prober.py',
   'PYMODULE'),
  ('chardet.latin1prober',
   '/home/hp/django_projects/pd/lib/python3.5/site-packages/chardet/latin1prober.py',
   'PYMODULE'),
  ('chardet.escprober',
   '/home/hp/django_projects/pd/lib/python3.5/site-packages/chardet/escprober.py',
   'PYMODULE'),
  ('chardet.escsm',
   '/home/hp/django_projects/pd/lib/python3.5/site-packages/chardet/escsm.py',
   'PYMODULE'),
  ('chardet.enums',
   '/home/hp/django_projects/pd/lib/python3.5/site-packages/chardet/enums.py',
   'PYMODULE'),
  ('chardet.charsetgroupprober',
   '/home/hp/django_projects/pd/lib/python3.5/site-packages/chardet/charsetgroupprober.py',
   'PYMODULE'),
  ('chardet.compat',
   '/home/hp/django_projects/pd/lib/python3.5/site-packages/chardet/compat.py',
   'PYMODULE'),
  ('urllib3',
   '/home/hp/django_projects/pd/lib/python3.5/site-packages/urllib3/__init__.py',
   'PYMODULE'),
  ('main', '/home/hp/django_projects/flaskapp/main/__init__.py', 'PYMODULE'),
  ('pyupdater.client',
   '/home/hp/django_projects/pd/lib/python3.5/site-packages/pyupdater/client/__init__.py',
   'PYMODULE'),
  ('pyupdater.utils.exceptions',
   '/home/hp/django_projects/pd/lib/python3.5/site-packages/pyupdater/utils/exceptions.py',
   'PYMODULE'),
  ('pyupdater.utils',
   '/home/hp/django_projects/pd/lib/python3.5/site-packages/pyupdater/utils/__init__.py',
   'PYMODULE'),
  ('stevedore.extension',
   '/home/hp/django_projects/pd/lib/python3.5/site-packages/stevedore/extension.py',
   'PYMODULE'),
  ('stevedore',
   '/home/hp/django_projects/pd/lib/python3.5/site-packages/stevedore/__init__.py',
   'PYMODULE'),
  ('stevedore.driver',
   '/home/hp/django_projects/pd/lib/python3.5/site-packages/stevedore/driver.py',
   'PYMODULE'),
  ('stevedore.hook',
   '/home/hp/django_projects/pd/lib/python3.5/site-packages/stevedore/hook.py',
   'PYMODULE'),
  ('stevedore.named',
   '/home/hp/django_projects/pd/lib/python3.5/site-packages/stevedore/named.py',
   'PYMODULE'),
  ('stevedore.enabled',
   '/home/hp/django_projects/pd/lib/python3.5/site-packages/stevedore/enabled.py',
   'PYMODULE'),
  ('stevedore.exception',
   '/home/hp/django_projects/pd/lib/python3.5/site-packages/stevedore/exception.py',
   'PYMODULE'),
  ('dsdev_utils',
   '/home/hp/django_projects/pd/lib/python3.5/site-packages/dsdev_utils/__init__.py',
   'PYMODULE'),
  ('dsdev_utils.terminal',
   '/home/hp/django_projects/pd/lib/python3.5/site-packages/dsdev_utils/terminal.py',
   'PYMODULE'),
  ('dsdev_utils._version',
   '/home/hp/django_projects/pd/lib/python3.5/site-packages/dsdev_utils/_version.py',
   'PYMODULE'),
  ('pyupdater.utils.config',
   '/home/hp/django_projects/pd/lib/python3.5/site-packages/pyupdater/utils/config.py',
   'PYMODULE'),
  ('pyupdater.utils.storage',
   '/home/hp/django_projects/pd/lib/python3.5/site-packages/pyupdater/utils/storage.py',
   'PYMODULE'),
  ('pyupdater.client.updates',
   '/home/hp/django_projects/pd/lib/python3.5/site-packages/pyupdater/client/updates.py',
   'PYMODULE'),
  ('pyupdater.core.package_handler.package',
   '/home/hp/django_projects/pd/lib/python3.5/site-packages/pyupdater/core/package_handler/package.py',
   'PYMODULE'),
  ('pyupdater.core.package_handler',
   '/home/hp/django_projects/pd/lib/python3.5/site-packages/pyupdater/core/package_handler/__init__.py',
   'PYMODULE'),
  ('pyupdater.core',
   '/home/hp/django_projects/pd/lib/python3.5/site-packages/pyupdater/core/__init__.py',
   'PYMODULE'),
  ('pyupdater.core.uploader',
   '/home/hp/django_projects/pd/lib/python3.5/site-packages/pyupdater/core/uploader.py',
   'PYMODULE'),
  ('pyupdater.core.key_handler.keys',
   '/home/hp/django_projects/pd/lib/python3.5/site-packages/pyupdater/core/key_handler/keys.py',
   'PYMODULE'),
  ('pyupdater.core.key_handler',
   '/home/hp/django_projects/pd/lib/python3.5/site-packages/pyupdater/core/key_handler/__init__.py',
   'PYMODULE'),
  ('pyupdater.core.package_handler.patch',
   '/home/hp/django_projects/pd/lib/python3.5/site-packages/pyupdater/core/package_handler/patch.py',
   'PYMODULE'),
  ('bsdiff4',
   '/home/hp/django_projects/pd/lib/python3.5/site-packages/bsdiff4/__init__.py',
   'PYMODULE'),
  ('bsdiff4.test_all',
   '/home/hp/django_projects/pd/lib/python3.5/site-packages/bsdiff4/test_all.py',
   'PYMODULE'),
  ('bsdiff4.format',
   '/home/hp/django_projects/pd/lib/python3.5/site-packages/bsdiff4/format.py',
   'PYMODULE'),
  ('dsdev_utils.crypto',
   '/home/hp/django_projects/pd/lib/python3.5/site-packages/dsdev_utils/crypto.py',
   'PYMODULE'),
  ('dsdev_utils.exceptions',
   '/home/hp/django_projects/pd/lib/python3.5/site-packages/dsdev_utils/exceptions.py',
   'PYMODULE'),
  ('pyupdater.client.patcher',
   '/home/hp/django_projects/pd/lib/python3.5/site-packages/pyupdater/client/patcher.py',
   'PYMODULE'),
  ('pyupdater.client.downloader',
   '/home/hp/django_projects/pd/lib/python3.5/site-packages/pyupdater/client/downloader.py',
   'PYMODULE'),
  ('pyupdater.utils.compat',
   '/home/hp/django_projects/pd/lib/python3.5/site-packages/pyupdater/utils/compat.py',
   'PYMODULE'),
  ('pyupdater.settings',
   '/home/hp/django_projects/pd/lib/python3.5/site-packages/pyupdater/settings.py',
   'PYMODULE'),
  ('pyupdater',
   '/home/hp/django_projects/pd/lib/python3.5/site-packages/pyupdater/__init__.py',
   'PYMODULE'),
  ('pyupdater._version',
   '/home/hp/django_projects/pd/lib/python3.5/site-packages/pyupdater/_version.py',
   'PYMODULE'),
  ('logging.handlers', '/usr/lib/python3.5/logging/handlers.py', 'PYMODULE'),
  ('smtplib', '/usr/lib/python3.5/smtplib.py', 'PYMODULE'),
  ('six',
   '/home/hp/django_projects/pd/lib/python3.5/site-packages/six.py',
   'PYMODULE'),
  ('ed25519',
   '/home/hp/django_projects/pd/lib/python3.5/site-packages/ed25519/__init__.py',
   'PYMODULE'),
  ('ed25519._version',
   '/home/hp/django_projects/pd/lib/python3.5/site-packages/ed25519/_version.py',
   'PYMODULE'),
  ('ed25519.keys',
   '/home/hp/django_projects/pd/lib/python3.5/site-packages/ed25519/keys.py',
   'PYMODULE'),
  ('dsdev_utils.system',
   '/home/hp/django_projects/pd/lib/python3.5/site-packages/dsdev_utils/system.py',
   'PYMODULE'),
  ('dsdev_utils.paths',
   '/home/hp/django_projects/pd/lib/python3.5/site-packages/dsdev_utils/paths.py',
   'PYMODULE'),
  ('dsdev_utils.logger',
   '/home/hp/django_projects/pd/lib/python3.5/site-packages/dsdev_utils/logger.py',
   'PYMODULE'),
  ('dsdev_utils.helpers',
   '/home/hp/django_projects/pd/lib/python3.5/site-packages/dsdev_utils/helpers.py',
   'PYMODULE'),
  ('dsdev_utils.app',
   '/home/hp/django_projects/pd/lib/python3.5/site-packages/dsdev_utils/app.py',
   'PYMODULE'),
  ('appdirs',
   '/home/hp/django_projects/pd/lib/python3.5/site-packages/appdirs.py',
   'PYMODULE'),
  ('argparse', '/usr/lib/python3.5/argparse.py', 'PYMODULE'),
  ('threading', '/usr/lib/python3.5/threading.py', 'PYMODULE'),
  ('os', '/home/hp/django_projects/pd/lib/python3.5/os.py', 'PYMODULE'),
  ('logging', '/usr/lib/python3.5/logging/__init__.py', 'PYMODULE')])
